{
  "name": "Client",
  "plural": "clients",
  "base": "User",
  "idInjection": true,
  "options": {
    "validateUpsert": true
  },
  "properties": {
    "firstName": {
      "type": "string",
      "required": true
    },
    "lastName": {
      "type": "string"
    },
    "image": {
      "type": "string"
    },
    "phone": {
      "type": "string"
    }
  },
  "validations": [],
  "relations": {
    "colleges": {
      "type": "hasMany",
      "model": "College",
      "foreignKey": ""
    },
    "courses": {
      "type": "hasMany",
      "model": "Course",
      "foreignKey": ""
    },
    "employees": {
      "type": "hasMany",
      "model": "Employee",
      "foreignKey": ""
    },
    "fees": {
      "type": "hasMany",
      "model": "Fee",
      "foreignKey": ""
    },
    "students": {
      "type": "hasMany",
      "model": "Student",
      "foreignKey": ""
    }
  },
  "acls": [],
  "methods": {}
}
