{
  "name": "Fee",
  "plural": "fees",
  "base": "PersistedModel",
  "idInjection": true,
  "options": {
    "validateUpsert": true
  },
  "properties": {
    "fee": {
      "type": "number",
      "required": true
    },
    "feeType": {
      "type": "string"
    },
    "description": {
      "type": "string"
    },
    "courseYear": {
      "type": "number"
    }
  },
  "validations": [],
  "relations": {
    "client": {
      "type": "belongsTo",
      "model": "Client",
      "foreignKey": ""
    },
    "employee": {
      "type": "belongsTo",
      "model": "Employee",
      "foreignKey": ""
    },
    "student": {
      "type": "belongsTo",
      "model": "Student",
      "foreignKey": ""
    }
  },
  "acls": [],
  "methods": {}
}
